ServerName	ServerType	ServerAddress	PortNo	Username	Password	RootDirectory	UploadDirectory	InprogressUploadDirectory	Rename	Active	Recursive
OSCAMainframefile	SMB					\\PHONTS80025US.homeoffice.wal-mart.com\FileShares\OSCAMainframefile			0	1	0
FC_SC_PROD	SMB					\\PHONTS80025US.homeoffice.wal-mart.com\FileShares\OSCAMainframefile\T_Log_Handler\FC_SC_PROD			0	1	0
FC_NM_PROD	SMB					\\PHONTS80025US.homeoffice.wal-mart.com\FileShares\OSCAMainframefile\T_Log_Handler\FC_NM_PROD			0	1	0
GM_SC_PROD	SMB					\\PHONTS80025US.homeoffice.wal-mart.com\FileShares\OSCAMainframefile\T_Log_Handler\GM_SC_PROD			0	1	0
GM_NM_PROD	SMB					\\PHONTS80025US.homeoffice.wal-mart.com\FileShares\OSCAMainframefile\T_Log_Handler\GM_NM_PROD			0	1	0
FC_SC_CERT	SMB					\\PHONTS80025US.homeoffice.wal-mart.com\FileShares\OSCAMainframefile\T_Log_Handler\FC_SC_CERT			0	1	0
FC_NM_CERT	SMB					\\PHONTS80025US.homeoffice.wal-mart.com\FileShares\OSCAMainframefile\T_Log_Handler\FC_NM_CERT			0	1	0
GM_SC_CERT	SMB					\\PHONTS80025US.homeoffice.wal-mart.com\FileShares\OSCAMainframefile\T_Log_Handler\GM_SC_CERT			0	1	0
GM_NM_CERT	SMB					\\PHONTS80025US.homeoffice.wal-mart.com\FileShares\OSCAMainframefile\T_Log_Handler\GM_NM_CERT			0	1	0
GM_SC_DEV	SMB					\\PHONTS80025US.homeoffice.wal-mart.com\FileShares\OSCAMainframefile\T_Log_Handler\GM_SC_DEV			0	0	0
GM_NM_DEV	SMB					\\PHONTS80025US.homeoffice.wal-mart.com\FileShares\OSCAMainframefile\T_Log_Handler\GM_NM_DEV			0	0	0
